{
  "count": 123,
  "next": "http://127.0.0.1:8000/api/bookmarks/?limit=100&offset=100",
  "previous": null,
  "results": [
    {
      "id": 1,
      "url": "https://example.com",
      "title": "Example title",
      "description": "Example description",
      "website_title": "Website title",
      "website_description": "Website description",
      "tag_names": [
        "tag1",
        "tag2"
      ],
      "date_added": "2020-09-26T09:46:23.006313Z",
      "date_modified": "2020-09-26T16:01:14.275335Z"
    }
  ]
}
